{
  "reviews": [
    {
      "content": "Я мама двоих мальчишек 5-ти и 9-ти лет. С алфавитом играем во все предложенные игры.",
      "more": "Младший любит загадывать мне слова с пропущенными буквами, а брату \"Карусель\". Еще я пишу на листочке загадки, а ребята пишут магнитными буквами отгадки. Буквы удобные, красивые и ребятам очень нравиться играть с ними. Алфавит живет у нас на холодильнике и играем мы, когда я готовлю.",
      "name": "Ольга Косолапова",
      "about": "Мама 4 детей, Санкт-Петербург"
    },
    {
      "content": "Я мама двоих мальчишек 5-ти и 9-ти лет. С алфавитом играем во все предложенные игры.",
      "more": "Младший любит загадывать мне слова с пропущенными буквами, а брату \"Карусель\". Еще я пишу на листочке загадки, а ребята пишут магнитными буквами отгадки. Буквы удобные, красивые и ребятам очень нравиться играть с ними. Алфавит живет у нас на холодильнике и играем мы, когда я готовлю.",
      "name": "Ольга Косолапова",
      "about": "Мама 4 детей, Санкт-Петербург"
    },
    {
      "content": "Я мама двоих мальчишек 5-ти и 9-ти лет. С алфавитом играем во все предложенные игры.",
      "more": "Младший любит загадывать мне слова с пропущенными буквами, а брату \"Карусель\". Еще я пишу на листочке загадки, а ребята пишут магнитными буквами отгадки. Буквы удобные, красивые и ребятам очень нравиться играть с ними. Алфавит живет у нас на холодильнике и играем мы, когда я готовлю.",
      "name": "Ольга Косолапова",
      "about": "Мама 4 детей, Санкт-Петербург"
    }
  ]
}
